<svg width="15" height="15" viewBox="0 0 15 15" fill="none" xmlns="http://www.w3.org/2000/svg">
<path fill-rule="evenodd" clip-rule="evenodd" d="M2 0C0.895431 0 0 0.895431 0 2V6C0 7.10457 0.89543 8 2 8L12 8L13.5 15L15 8V2C15 0.895431 14.1046 0 13 0H2Z" fill="#F3F3F3"/>
</svg>
