<svg width="15" height="15" viewBox="0 0 15 15" fill="none" xmlns="http://www.w3.org/2000/svg">
<path fill-rule="evenodd" clip-rule="evenodd" d="M2 0C0.895431 0 0 0.895431 0 2V8L1.5 15L3 8L13 8C14.1046 8 15 7.10457 15 6V2C15 0.895431 14.1046 0 13 0H2Z" fill="#F3F3F3"/>
</svg>
