<svg width="12" height="8" viewBox="0 0 12 8" fill="none" xmlns="http://www.w3.org/2000/svg">
<rect x="9.89917" y="7.07106" width="8" height="2" transform="rotate(-135 9.89917 7.07106)" fill="#F3F3F3"/>
<rect x="1.41382" y="7.07106" width="2" height="8" transform="rotate(-135 1.41382 7.07106)" fill="#F3F3F3"/>
</svg>
